objid	container	server_template_crc	cell_index	px	py	pz	qw	qx	qy	qz	scripts	objvars
i	i	h	i	f	f	f	f	f	f	f	s	p
108	0	object/building/naboo/cantina_naboo.iff	0	776.64	4.17	1522.46	0.764842	0	0.644217	0	planet_map.map_loc:structure.municipal.cantina:theme_park.dungeon.generic_spawner	spawn_table|4|datatables/spawning/building_spawns/moenia_cantina.iff|healing.canhealshock|0|1|safeLogout|0|1|$|
109	108	object/cell/cell.iff	1	0	0	0	1	0	0	0		$|
110	108	object/cell/cell.iff	2	0	0	0	1	0	0	0		$|
516454247	110	object/tangible/collection/hanging_light_02_04.iff	2	31.6084	4.15823	-6.67701	1	0	0	0		$|
111	108	object/cell/cell.iff	3	0	0	0	1	0	0	0		$|
112	108	object/cell/cell.iff	4	0	0	0	1	0	0	0		$|
113	108	object/cell/cell.iff	5	0	0	0	1	0	0	0		$|
114	108	object/cell/cell.iff	6	0	0	0	1	0	0	0		$|
115	108	object/cell/cell.iff	7	0	0	0	1	0	0	0		$|
601454200	115	object/tangible/collection/col_ent_fan_06.iff	7	3.34887	-0.132562	18.3074	-0.507141	-0.492198	0.50339	0.497137		$|
116	108	object/cell/cell.iff	8	0	0	0	1	0	0	0		$|
4657125	116	object/tangible/collection/rare_melee_kaminoan_staff.iff	8	-9.27532	-0.109616	-21.8257	0.707386	0	0	0.706827		$|
117	108	object/cell/cell.iff	9	0	0	0	1	0	0	0		$|
118	108	object/cell/cell.iff	10	0	0	0	1	0	0	0		$|
119	108	object/cell/cell.iff	11	0	0	0	1	0	0	0		$|
871829	119	object/tangible/terminal/terminal_mission_rebel.iff	11	-29.0849	-0.894984	1.0454	0.707107	0	0.707106	0		$|
871833	119	object/tangible/terminal/terminal_mission_rebel.iff	11	-29.0512	-0.894985	2.79176	0.707107	0	0.707106	0		$|
120	108	object/cell/cell.iff	12	0	0	0	1	0	0	0		$|
121	108	object/cell/cell.iff	13	0	0	0	1	0	0	0		$|
122	108	object/cell/cell.iff	14	0	0	0	1	0	0	0		$|
123	108	object/cell/cell.iff	15	0	0	0	1	0	0	0		$|
129	0	object/tangible/microphone/microphone.iff	0	746.11	4.17	1497.92	-0.637151	0	0.770739	0		$|
133	0	object/static/structure/naboo/gungan_damaged_wall_lg_s01.iff	0	731.677	2.03567	1442.39	-0.238476	0	0.971148	0		$|
134	0	object/static/structure/naboo/gungan_cleft_wall_lg_s01.iff	0	731.436	2.15256	1435.2	0.978031	0	-0.20846	0		$|
136	0	object/static/structure/naboo/gungan_wall_ruined_lg_s02.iff	0	736.364	2.65473	1449.09	0.932327	0	0.361615	0		$|
137	0	object/static/structure/naboo/gungan_pillar_ruined_s01.iff	0	739.626	3.52659	1452.78	0.434248	0	0.900793	0		$|
138	0	object/static/structure/naboo/gungan_pillar_ruined_s01.iff	0	729.996	3.53754	1438.71	1	0	0	0		$|
139	0	object/static/structure/naboo/gungan_pillar_damaged_s01.iff	0	733.648	3.4108	1446.15	0.475732	0	0.87959	0		$|
140	0	object/static/structure/naboo/gungan_pillar_ruined_s01.iff	0	733.155	3.28456	1431.23	-0.54869	0	0.836026	0		$|
143	0	object/static/structure/naboo/gungan_pillar_ruined_s01.iff	0	717.583	2.20636	1416.8	0.143704	0	0.98962	0		$|
144	0	object/static/structure/naboo/gungan_wall_ruined_lg_s02.iff	0	712.796	2.20636	1415.65	0.780706	0	0.624898	0		$|
145	0	object/static/structure/naboo/gungan_pillar_damaged_s01.iff	0	708.886	2.20636	1414.79	0.189641	0	0.981853	0		$|
146	0	object/static/structure/naboo/gungan_damaged_wall_lg_s01.iff	0	705.114	2.20636	1412.84	-0.519098	0	0.854714	0		$|
147	0	object/static/structure/naboo/gungan_pillar_ruined_s01.iff	0	701.629	2.20636	1410.79	0.953847	0	0.300293	0		$|
1340289	0	object/tangible/speaker/speaker.iff	0	640.451	3.73155	1257.67	0.849901	0	0.526943	0		$|
1340290	0	object/tangible/microphone/microphone.iff	0	641.515	3.75	1264.36	0.844589	0	0.535416	0		$|
1340291	0	object/tangible/instrument/ommni_box.iff	0	637.988	3.75	1265.51	0.987227	0	-0.159318	0		$|
1340292	0	object/tangible/speaker/speaker.iff	0	636.282	3.75	1267.6	0.891569	0	0.452885	0		$|
1340293	0	object/tangible/instrument/nalargon.iff	0	639.527	3.75	1261.91	0.90687	0	0.421409	0		$|
1340294	0	object/static/structure/general/streetlamp_small_style_01.iff	0	641.8	3.75	1264.5	-0.540305	0	0.841469	0		$|
1340295	0	object/static/structure/naboo/poi_nboo_tent_small.iff	0	682.533	3.75	1170.81	1	0	0	0		$|
1340296	0	object/tangible/furniture/elegant/love_seat_s01.iff	0	684.574	3.75	1169.48	0.967663	0	-0.252245	0		$|
1340297	0	object/tangible/furniture/elegant/love_seat_s01.iff	0	680.819	3.75	1169.21	0.956802	0	0.29074	0		$|
1340299	0	object/static/item/item_container_organic_structure.iff	0	682.746	3.75	1168.33	0.984727	0	-0.174108	0		$|
1340300	0	object/static/item/item_container_organic_structure.iff	0	681.827	3.75	1168.55	0.877583	0	-0.479426	0		$|
1340301	0	object/static/item/item_container_organic_structure.iff	0	682.412	3.75	1169.04	0.96639	0	-0.257081	0		$|
1340303	0	object/static/structure/general/data_terminal_free_s1.iff	0	684.6	3.75	1173.19	-0.310574	0	0.950549	0		$|
1340304	0	object/tangible/furniture/elegant/chair_s01.iff	0	851.742	3.75	1305.43	-0.453596	0	0.891207	0		$|
1340305	0	object/tangible/furniture/elegant/chair_s01.iff	0	851.631	3.75	1302.33	0.924909	0	-0.380188	0		$|
1340306	0	object/tangible/furniture/elegant/chair_s01.iff	0	848.55	3.75	1303.44	0.847255	0	0.531186	0		$|
1340307	0	object/tangible/furniture/modern/table_modern_style_01.iff	0	850.323	3.75	1304.02	1	0	0	0		$|
1340309	0	object/static/item/item_jar_berries.iff	0	850.398	4.63544	1303.97	1	0	0	0		$|
1340310	0	object/static/item/item_con_plate_s1_full.iff	0	850.562	4.63544	1303.59	1	0	0	0		$|
1340311	0	object/static/item/item_glass_metal.iff	0	850.304	3.87649	1303.75	1	0	0	0		$|
1340312	0	object/static/item/item_glass_metal.iff	0	850.696	3.87649	1304.4	1	0	0	0		$|
1340313	0	object/static/item/item_glass_metal.iff	0	849.941	3.87649	1303.99	1	0	0	0		$|
1340314	0	object/static/item/item_crate_clothing_small.iff	0	760.171	3.75	1347.69	0.796084	0	-0.605186	0		$|
1340315	0	object/static/item/item_crate_clothing_small.iff	0	760.156	3.75	1348.51	-0.62161	0	0.783327	0		$|
1340316	0	object/static/item/item_raw_cloth.iff	0	760.314	4.46	1346.81	0.813878	0	-0.581035	0		$|
1340317	0	object/static/item/item_raw_cloth.iff	0	759.86	4.46	1346.55	-0.462485	0	0.886627	0		$|
1340318	0	object/static/item/item_ribbon.iff	0	760.317	4.5	1346.23	0.819648	0	0.572867	0		$|
1340319	0	object/static/item/item_ribbon.iff	0	760.367	4.5	1346.39	0.204347	0	0.978899	0		$|
1340320	0	object/tangible/furniture/elegant/chest_s01.iff	0	760.073	3.75	1346.55	1	0	0	0		$|
1340323	0	object/tangible/furniture/elegant/coffee_table_s01.iff	0	603.537	3.75	1199.49	0.919102	0	0.394019	0		$|
1340324	0	object/tangible/furniture/elegant/end_table_s01.iff	0	604.574	3.75	1198.42	0.919102	0	0.394019	0		$|
1340325	0	object/tangible/furniture/elegant/end_table_s01.iff	0	602.456	3.75	1200.6	0.919102	0	0.394019	0		$|
1340326	0	object/static/item/item_tool_radio.iff	0	604.409	4.12947	1198.49	0.928665	0	0.37092	0		$|
1340327	0	object/static/item/item_katana.iff	0	603.978	4.1611	1199.55	0.646971	0.285356	0.285356	0.646971		$|
1340328	0	object/static/item/item_rifle.iff	0	603.876	4.31921	1198.97	-0.421889	0.818757	-0.178372	-0.346165		$|
1340329	0	object/static/item/item_rifle.iff	0	603.017	4.31921	1199.86	-0.421889	0.818757	-0.178372	-0.346165		$|
1340330	0	object/static/item/item_pistol.iff	0	603.465	4.1611	1199.83	0.657968	-0.258994	-0.258994	0.657968		$|
1340331	0	object/static/item/item_carbine_dh17.iff	0	603.903	4.1611	1199.3	0.271028	-0.627233	0.686935	-0.247473		$|
1340332	0	object/static/item/item_con_ration_kit_lg.iff	0	602.485	4.1611	1200.74	0.755093	0	0.655617	0		$|
1340333	0	object/static/item/item_con_ration_kit_m.iff	0	604.908	4.1611	1198.44	1	0	0	0		$|
1544393	0	object/static/structure/general/cave_wall_damprock_style_01.iff	0	1754.63	56.0443	1516.72	-0.652799	0.155228	0.728284	-0.139139		$|
1717465	0	object/building/naboo/hotel_naboo_theed.iff	0	560.209	3.75	1250.04	0.708667	0	0.705543	0		$|
1717466	1717465	object/cell/cell.iff	1	0	0	0	1	0	0	0		$|
1717467	1717465	object/cell/cell.iff	2	0	0	0	1	0	0	0		$|
1717468	1717465	object/cell/cell.iff	3	0	0	0	1	0	0	0		$|
1717469	1717465	object/cell/cell.iff	4	0	0	0	1	0	0	0		$|
1143445	1717469	object/tangible/gambling/slot/standard.iff	4	4.38603	1.30488	-22.0814	0.999997	0	-0.00230193	0		$|
1143446	1717469	object/tangible/gambling/slot/standard.iff	4	0.312322	1.30398	-22.039	0.999997	0	-0.00230193	0		$|
1143447	1717469	object/tangible/gambling/wheel/roulette.iff	4	-1.16749	1.11418	-16.1785	0.999997	0	-0.00230193	0		$|
1143448	1717469	object/tangible/gambling/wheel/roulette.iff	4	9.47733	1.11514	-16.1891	0.999997	0	-0.00230193	0		$|
1143449	1717469	object/tangible/gambling/slot/standard.iff	4	8.42789	1.30488	-22.185	0.999997	0	-0.00230193	0		$|
1717470	1717465	object/cell/cell.iff	5	0	0	0	1	0	0	0		$|
1717471	1717465	object/cell/cell.iff	6	0	0	0	1	0	0	0		$|
1143439	1717471	object/tangible/gambling/wheel/roulette.iff	6	-15.9481	1.00091	-0.0480418	0.999973	0	-0.00730186	0		$|
1143440	1717471	object/tangible/gambling/wheel/roulette.iff	6	-15.9983	1.00092	4.32103	0.999973	0	-0.00730186	0		$|
1143441	1717471	object/tangible/gambling/slot/standard.iff	6	-12.3613	1.00074	-0.0199709	-0.701922	0	0.712255	0		$|
1143442	1717471	object/tangible/gambling/slot/standard.iff	6	-12.1589	1.00059	-0.0377283	0.712253	0	0.701923	0		$|
1143443	1717471	object/tangible/gambling/slot/standard.iff	6	-12.0848	1.00085	4.27018	0.70328	0	0.710913	0		$|
1143444	1717471	object/tangible/gambling/slot/standard.iff	6	-12.2864	1.00069	4.29297	0.710906	0	-0.703287	0		$|
1717472	1717465	object/cell/cell.iff	7	0	0	0	1	0	0	0		$|
1717473	1717465	object/cell/cell.iff	8	0	0	0	1	0	0	0		$|
1717474	1717465	object/cell/cell.iff	9	0	0	0	1	0	0	0		$|
1717475	1717465	object/cell/cell.iff	10	0	0	0	1	0	0	0		$|
1717499	0	object/building/naboo/parking_garage_naboo_style_1.iff	0	550.823	3.75	1372.64	0.796084	0	0.605187	0		$|
1717501	1717500	object/cell/cell.iff	1	0	0	0	1	0	0	0		$|
1717502	1717500	object/cell/cell.iff	2	0	0	0	1	0	0	0		$|
1717503	1717500	object/cell/cell.iff	3	0	0	0	1	0	0	0		$|
1717504	1717500	object/cell/cell.iff	4	0	0	0	1	0	0	0		$|
1717505	1717500	object/cell/cell.iff	5	0	0	0	1	0	0	0		$|
1717506	1717500	object/cell/cell.iff	6	0	0	0	1	0	0	0		$|
1717507	1717500	object/cell/cell.iff	7	0	0	0	1	0	0	0		$|
1717508	1717500	object/cell/cell.iff	8	0	0	0	1	0	0	0		$|
1717509	1717500	object/cell/cell.iff	9	0	0	0	1	0	0	0		$|
1717510	1717500	object/cell/cell.iff	10	0	0	0	1	0	0	0		$|
1717511	1717500	object/cell/cell.iff	11	0	0	0	1	0	0	0		$|
1717512	1717500	object/cell/cell.iff	12	0	0	0	1	0	0	0		$|
1717513	1717500	object/cell/cell.iff	13	0	0	0	1	0	0	0		$|
1717514	1717500	object/cell/cell.iff	14	0	0	0	1	0	0	0		$|
1717500	0	object/building/naboo/hospital_naboo_style01.iff	0	822.3345	3.75	1215.063	1	0	0	0		$|
1717501	1717500	object/cell/cell.iff	1	0	0	0	1	1.401298E-45	0	0		$|
1717502	1717500	object/cell/cell.iff	2	0	0	0	1	2.802597E-45	0	0		$|
7677074	1717502	object/tangible/collection/datapad_08.iff	2	18.19289	1.011201	0.2911234	0.8419008	0	0.5396323	0		$|
1717503	1717500	object/cell/cell.iff	3	0	0	0	1	4.203895E-45	0	0		$|
1717504	1717500	object/cell/cell.iff	4	0	0	0	1	5.605194E-45	0	0		$|
1717505	1717500	object/cell/cell.iff	5	0	0	0	1	7.006492E-45	0	0		$|
1717506	1717500	object/cell/cell.iff	6	0	0	0	1	8.407791E-45	0	0		$|
1717507	1717500	object/cell/cell.iff	7	0	0	0	1	9.809089E-45	0	0		$|
1717508	1717500	object/cell/cell.iff	8	0	0	0	1	1.121039E-44	0	0		$|
1717509	1717500	object/cell/cell.iff	9	0	0	0	1	1.261169E-44	0	0		$|
1717510	1717500	object/cell/cell.iff	10	0	0	0	1	1.401298E-44	0	0		$|
1717511	1717500	object/cell/cell.iff	11	0	0	0	1	1.541428E-44	0	0		$|
1717512	1717500	object/cell/cell.iff	12	0	0	0	1	1.681558E-44	0	0		$|
1717513	1717500	object/cell/cell.iff	13	0	0	0	1	1.821688E-44	0	0		$|
1717514	1717500	object/cell/cell.iff	14	0	0	0	1	1.961818E-44	0	0		$|
1717524	0	object/building/naboo/bank_naboo.iff	0	708.297	3.75	1277.48	0.94441	0	0.328769	0		$|
1717526	0	object/building/naboo/guild_combat_naboo_style_01.iff	0	625.932	3.75	1159.51	1	0	0	0		$|
1717527	1717526	object/cell/cell.iff	1	0	0	0	1	0	0	0		$|
1717528	1717526	object/cell/cell.iff	2	0	0	0	1	0	0	0		$|
1717529	1717526	object/cell/cell.iff	3	0	0	0	1	0	0	0		$|
1717530	1717526	object/cell/cell.iff	4	0	0	0	1	0	0	0		$|
1717531	1717526	object/cell/cell.iff	5	0	0	0	1	0	0	0		$|
1717532	1717526	object/cell/cell.iff	6	0	0	0	1	0	0	0		$|
1717533	1717526	object/cell/cell.iff	7	0	0	0	1	0	0	0		$|
1717534	1717526	object/cell/cell.iff	8	0	0	0	1	0	0	0		$|
1717535	1717526	object/cell/cell.iff	9	0	0	0	1	0	0	0		$|
1717538	0	object/building/naboo/guild_commerce_naboo_style_01.iff	0	821.878	3.75	1353.92	-0.357693	0	0.933839	0		$|
1717539	1717538	object/cell/cell.iff	1	0	0	0	1	0	0	0		$|
1717540	1717538	object/cell/cell.iff	2	0	0	0	1	0	0	0		$|
1717541	1717538	object/cell/cell.iff	3	0	0	0	1	0	0	0		$|
1717542	1717538	object/cell/cell.iff	4	0	0	0	1	0	0	0		$|
1717543	1717538	object/cell/cell.iff	5	0	0	0	1	0	0	0		$|
1717544	1717538	object/cell/cell.iff	6	0	0	0	1	0	0	0		$|
1717545	1717538	object/cell/cell.iff	7	0	0	0	1	0	0	0		$|
1717546	1717538	object/cell/cell.iff	8	0	0	0	1	0	0	0		$|
1717547	1717538	object/cell/cell.iff	9	0	0	0	1	0	0	0		$|
1717548	0	object/building/naboo/guild_university_naboo_style_01.iff	0	709.165	3.75	1143.71	1	0	0	0		$|
1717549	1717548	object/cell/cell.iff	1	0	0	0	1	0	0	0		$|
1717550	1717548	object/cell/cell.iff	2	0	0	0	1	0	0	0		$|
1717551	1717548	object/cell/cell.iff	3	0	0	0	1	0	0	0		$|
1717552	1717548	object/cell/cell.iff	4	0	0	0	1	0	0	0		$|
6995467	1717552	object/tangible/ground_spawning/mob_spawner.iff	4	-1.8	1.1	-3.1	1	0	0	0		$|
1717553	1717548	object/cell/cell.iff	5	0	0	0	1	0	0	0		$|
1717554	1717548	object/cell/cell.iff	6	0	0	0	1	0	0	0		$|
1717555	1717548	object/cell/cell.iff	7	0	0	0	1	0	0	0		$|
1717556	1717548	object/cell/cell.iff	8	0	0	0	1	0	0	0		$|
1717557	1717548	object/cell/cell.iff	9	0	0	0	1	0	0	0		$|
1717558	0	object/building/naboo/cloning_facility_naboo.iff	0	929.726	3.75	1212.13	0.707388	0	-0.706826	0		$|
1717559	1717558	object/cell/cell.iff	1	0	0	0	1	0	0	0		$|
1717560	1717558	object/cell/cell.iff	2	0	0	0	1	0	0	0		$|
1717561	1717558	object/cell/cell.iff	3	0	0	0	1	0	0	0		$|
1717562	1717558	object/cell/cell.iff	4	0	0	0	1	0	0	0		$|
1717563	1717558	object/cell/cell.iff	5	0	0	0	1	0	0	0		$|
1717564	1717558	object/cell/cell.iff	6	0	0	0	1	0	0	0		$|
1717565	0	object/building/naboo/shuttleport_naboo.iff	0	885.941	3.75	1251.3	1	0	0	0	structure.municipal.starport:planet_map.map_loc	travel.cost|0|200|travel.ground_time|0|300|travel.is_shuttleport|0|1|travel.point_name|4|Moenia Shuttleport|travel.shuttle_available|0|1|travel.version|0|3|$|
1717676	0	object/static/structure/naboo/street_bridge_s02.iff	0	738.375	-3.38867	1202.36	0.950785	0.00130954	-0.309813	-0.00482544		$|
1717677	0	object/static/structure/naboo/elevated_walkway_cap_s01.iff	0	745.649	-3.38858	1207.66	0.950785	0.00130954	-0.309813	-0.00482544		$|
1717678	0	object/static/structure/naboo/elevated_walkway_cap_s01.iff	0	731.104	-3.38877	1197.06	0.950785	0.00130954	-0.309813	-0.00482544		$|
1717685	0	object/static/structure/naboo/elevated_walkway_cap_s01.iff	0	753.609	3.75019	1383.52	0.825111	0	0.564971	0		$|
1717687	0	object/static/structure/naboo/street_bridge_s02.iff	0	750.356	3.75009	1391.91	0.825111	0	0.564971	0		$|
1717692	0	object/static/structure/naboo/elevated_walkway_cap_s01.iff	0	747.168	3.75	1400.17	0.82511	0	0.564972	0		$|
1717693	0	object/static/structure/naboo/elevated_walkway_cap_s01.iff	0	760.077	3.75009	1366.77	0.825111	0	0.56497	0		$|
1717694	0	object/static/structure/naboo/street_bridge_s02.iff	0	756.823	3.75	1375.16	0.825111	0	0.56497	0		$|
1717695	0	object/static/structure/naboo/gungan_relic_s02.iff	0	689.795	0.894631	1218.6	0.999688	0.000299969	0.0199964	-0.0149964		$|
1717696	0	object/static/structure/naboo/gungan_relic_s02.iff	0	659.123	1.42397	1218.99	0.999388	0	-0.0349929	0		$|
1717697	0	object/static/structure/naboo/gungan_relic_s02.iff	0	673.848	1.46542	1232.7	0.707107	0	0.707106	0		$|
1717698	0	object/static/structure/naboo/gungan_relic_s01.iff	0	673.049	3.3536	1221.19	0.707107	0	0.707107	0		$|
1717701	0	object/static/structure/naboo/elevated_walkway_cap_s01.iff	0	614.358	-3.33162	1274.39	0.99448	0.00228704	-0.104807	-0.00444592		$|
1717702	0	object/static/structure/naboo/elevated_walkway_cap_s01.iff	0	631.962	-3.31946	1278.14	0.99448	0.00228704	-0.104807	-0.00444592		$|
1717703	0	object/static/structure/naboo/street_bridge_s02.iff	0	623.159	-3.32553	1276.26	0.99448	0.00228704	-0.104807	-0.00444592		$|
1719352	0	object/static/structure/naboo/bridge_stairs_s01.iff	0	761.758	3.75	1362.55	-0.561168	0	0.827702	0		$|
1719353	0	object/static/structure/naboo/bridge_stairs_s01.iff	0	745.644	3.75505	1404.42	0.819192	0	0.57352	0		$|
1719354	0	object/static/structure/naboo/nboo_imprv_pillar_pillar_s03.iff	0	740.47	3.7702	1410.07	0.986418	0	-0.164252	0		$|
1719355	0	object/static/structure/naboo/nboo_imprv_pillar_pillar_s03.iff	0	745.937	3.47633	1412.06	0.983844	0	-0.179029	0		$|
1719356	0	object/building/naboo/housing_naboo_style_3.iff	0	889.606	3.75	1217.91	0.707108	0	-0.707105	0		$|
1719359	0	object/building/naboo/housing_naboo_style_1.iff	0	757.546	3.75	1314.46	0.96639	0	0.257081	0		$|
1719360	1719359	object/cell/cell.iff	1	0	0	0	1	0	0	0		$|
1719361	1719359	object/cell/cell.iff	2	0	0	0	1	0	0	0		$|
1719362	1719359	object/cell/cell.iff	3	0	0	0	1	0	0	0		$|
1719363	1719359	object/cell/cell.iff	4	0	0	0	1	0	0	0		$|
1719364	1719359	object/cell/cell.iff	5	0	0	0	1	0	0	0		$|
1719365	1719359	object/cell/cell.iff	6	0	0	0	1	0	0	0		$|
1719366	1719359	object/cell/cell.iff	7	0	0	0	1	0	0	0		$|
1719376	0	object/static/structure/naboo/gungan_wall_ruined_lg_s01.iff	0	683.067	2.02866	1211.28	0.992809	0	0	-0.119712		$|
1719377	0	object/static/structure/naboo/gungan_wall_ruined_lg_s02.iff	0	677.168	2.64439	1207.94	-3.17312E-08	-0.129634	0.991562	4.14846E-09		$|
1719378	0	object/static/structure/naboo/elevated_walkway_cap_s01.iff	0	703.411	-3.33769	1194.08	0.810953	-0.000224351	-0.58509	-0.00499464	theme_park.script_spawner.spawner_methods.gcw_spawner	$|
1719379	0	object/static/structure/naboo/street_bridge_s02.iff	0	706.248	-3.38151	1202.62	0.810953	-0.000224351	-0.58509	-0.00499464		$|
1719380	0	object/static/structure/naboo/elevated_walkway_cap_s01.iff	0	709.087	-3.36208	1211.16	0.810953	-0.000224351	-0.58509	-0.00499464		$|
1719402	0	object/static/structure/naboo/archway_wide_s02.iff	0	754.09	3.75	1161.06	0.99995	0	0.00999948	0		$|
1719403	0	object/static/structure/naboo/nboo_imprv_pillar_pillar_s01.iff	0	745.092	3.75	1161.24	0.99995	0	0.00999948	0		$|
1719404	0	object/static/structure/naboo/nboo_imprv_pillar_pillar_s01.iff	0	763.088	3.75	1160.88	0.99995	0	0.00999948	0		$|
1719405	0	object/static/structure/naboo/wall_a1_naboo_theed_style_1.iff	0	745	1.80619	1160.48	0.825337	0	-0.564641	0		$|
1719406	0	object/static/structure/naboo/gate_narrow_s01.iff	0	731.635	3.75	1140.32	-0.0149995	0	0.999887	0		$|
1719407	0	object/static/structure/naboo/archway_wide_s02.iff	0	590.682	3.75	1232.22	0.999987	0	-0.00499998	0		$|
1719408	0	object/static/structure/naboo/nboo_imprv_pillar_pillar_s01.iff	0	581.682	3.75	1232.13	-0.703562	0	0.710633	0		$|
1719409	0	object/static/structure/naboo/nboo_imprv_pillar_pillar_s01.iff	0	599.681	3.75	1232.31	0.00499995	0	0.999987	0		$|
1719413	0	object/static/structure/naboo/nboo_imprv_pillar_pillar_s01.iff	0	599.321	3.75	1268.31	0.710633	0	0.703562	0		$|
1719414	0	object/static/structure/naboo/archway_wide_s02.iff	0	590.322	3.75	1268.22	0.999987	0	-0.00499998	0		$|
1719415	0	object/static/structure/naboo/nboo_imprv_pillar_pillar_s01.iff	0	581.322	3.75	1268.13	0.999987	0	-0.00499998	0		$|
1719416	0	object/static/structure/naboo/street_bridge_s02.iff	0	646.966	-3.28883	1240.74	0.844577	7.54784E-05	-0.53541	-0.00499916		$|
1719417	0	object/static/structure/naboo/elevated_walkway_cap_s01.iff	0	643.125	-3.30207	1232.6	0.844577	7.54784E-05	-0.53541	-0.00499916		$|
1719418	0	object/static/structure/naboo/elevated_walkway_cap_s01.iff	0	650.808	-3.27558	1248.88	0.844577	7.54784E-05	-0.53541	-0.00499916		$|
1719424	0	object/static/structure/naboo/gungan_wall_ruined_sm_s01.iff	0	737.833	3.52864	1250.61	0.917747	-0.0574	0.38715	-0.0675309		$|
1719425	0	object/static/structure/naboo/gungan_wall_ruined_sm_s02.iff	0	742.372	3.27566	1254.79	0.930508	0	0.366273	0		$|
1719426	0	object/static/structure/naboo/gungan_pillar_ruined_s01.iff	0	750.493	1.8339	1261.85	0.924163	-0.058527	-0.376675	0.0247723		$|
1719427	0	object/static/structure/naboo/gungan_wall_ruined_lg_s02.iff	0	759.064	1.33164	1263.17	0.816331	-0.0543932	-0.570548	0.0715508		$|
1719428	0	object/static/structure/naboo/gungan_wall_ruined_sm_s01.iff	0	767.97	2.93369	1259.11	0.545877	-0.11004	0.828144	-0.063929		$|
1719429	0	object/static/structure/naboo/gungan_pillar_ruined_s01.iff	0	771.611	1.9687	1255.3	0.933282	-0.119543	-0.318259	-0.11578		$|
1719430	0	object/static/structure/naboo/gungan_wall_ruined_sm_s02.iff	0	770.007	2.91255	1253.94	0.813438	0.0955277	0.556504	0.139632		$|
1719431	0	object/static/structure/naboo/gungan_statue_s03.iff	0	752.776	1.66893	1252.18	0.936896	-0.337978	-0.0835978	0.0317421		$|
1719432	0	object/static/structure/naboo/gungan_pillar_ruined_s01.iff	0	750.856	1.32663	1248.85	0.796084	0	-0.605186	0		$|
1719433	0	object/static/structure/naboo/gungan_wall_ruined_lg_s01.iff	0	747.148	1.86229	1240.96	0.962934	0.0368428	0.246187	0.103887		$|
1719434	0	object/static/structure/naboo/nboo_imprv_pillar_pillar_s01.iff	0	782.063	3.75	1241.23	1	0	-0.000399581	0		$|
1719435	0	object/static/structure/naboo/nboo_imprv_pillar_pillar_s01.iff	0	782.048	3.75	1259.23	-0.706827	0	0.707386	0		$|
1719436	0	object/static/structure/naboo/archway_wide_s02.iff	0	782.055	3.75	1250.24	-0.706827	0	0.707386	0		$|
1720352	0	object/static/structure/naboo/nboo_imprv_short_curved_wall_small_s01.iff	0	816.618	3.75	1243.79	-3.21059E-08	0	1	0		$|
1720354	0	object/static/structure/naboo/nboo_imprv_short_curved_wall_small_s01.iff	0	829.582	3.75	1239.79	-0.707107	0	0.707107	0		$|
1720355	0	object/static/structure/naboo/nboo_imprv_pillar_pillar_s03.iff	0	816.618	3.75	1243.79	-3.21059E-08	0	1	0		$|
1720356	0	object/static/structure/naboo/nboo_imprv_pillar_pillar_s03.iff	0	825.582	3.75	1243.79	-3.21059E-08	0	1	0		$|
1720357	0	object/static/structure/naboo/nboo_imprv_pillar_pillar_s03.iff	0	848.657	3.75	1252.35	0.707107	0	-0.707106	0		$|
1720358	0	object/static/structure/naboo/nboo_imprv_short_curved_wall_small_s01.iff	0	844.657	3.75	1248.35	1	0	0	0		$|
1720359	0	object/static/structure/naboo/nboo_imprv_short_curved_wall_small_s01.iff	0	838.657	3.75	1252.35	0.707107	0	0.707107	0		$|
1720360	0	object/static/structure/naboo/nboo_imprv_pillar_pillar_s03.iff	0	838.657	3.75	1252.35	0.707107	0	0.707107	0		$|
1720361	0	object/static/structure/naboo/nboo_imprv_pillar_pillar_s03.iff	0	843.657	3.84033	1248.35	0.707107	0	0.707107	0		$|
1720362	0	object/static/structure/naboo/wall_a1_naboo_theed_style_1.iff	0	940.126	2.11126	1179.1	1	0	0	0		$|
1720363	0	object/static/structure/naboo/wall_a1_naboo_theed_style_1.iff	0	919.402	2.11126	1178.95	1	0	0	0		$|
1720365	0	object/static/structure/naboo/wallend_a1_naboo_theed_style_1.iff	0	950.971	2.11126	1179.11	1	0	0	0		$|
1720366	0	object/static/structure/naboo/wall_a1_naboo_theed_style_1.iff	0	951.779	2.11126	1199.09	0.707108	0	-0.707106	0		$|
1720367	0	object/static/structure/naboo/wall_a1_naboo_theed_style_1.iff	0	951.909	2.11126	1219.95	-0.707107	0	0.707107	0		$|
1720368	0	object/static/structure/naboo/wall_a1_naboo_theed_style_1.iff	0	951.963	2.11126	1222.18	0.707107	0	0.707107	0		$|
1720370	0	object/static/structure/naboo/wall_a1_naboo_theed_style_1.iff	0	931.917	2.11126	1262.67	3.48103E-07	0	1	0		$|
1720371	0	object/static/structure/naboo/wall_a1_naboo_theed_style_1.iff	0	912.509	2.11126	1262.68	0	0	1	0		$|
1722354	0	object/static/structure/naboo/gate_narrow_s02.iff	0	952.207	3.75	1247.43	0.700002	0	0.714141	0		$|
1722359	0	object/static/structure/naboo/wallend_a1_naboo_theed_style_1.iff	0	952.343	2.11126	1262.51	-0.707107	0	0.707107	0		$|
1722360	0	object/static/structure/naboo/wallend_a1_naboo_theed_style_1.iff	0	902.891	2.11126	1262.6	3.4732E-07	0	1	0		$|
1722361	0	object/static/structure/naboo/gate_narrow_s02.iff	0	881.555	3.75	1229.48	-0.707104	0	0.707109	0		$|
1722363	0	object/static/structure/naboo/nboo_imprv_pillar_pillar_s02.iff	0	881.792	3.75	1225.03	-0.707104	0	0.707109	0		$|
1722364	0	object/static/structure/naboo/gungan_pillar_ruined_s01.iff	0	742.563	1.78711	1239.84	0.537793	-0.0338319	0.702757	-0.464508		$|
1722366	0	object/static/structure/naboo/elevated_walkway_cap_s01.iff	0	743.083	-3.2783	1225.56	1	0	0	0		$|
1722367	0	object/static/structure/naboo/elevated_walkway_cap_s01.iff	0	733.083	-3.2783	1225.56	1	0	0	0		$|
1722368	0	object/static/structure/naboo/street_bridge_s01.iff	0	738.083	-3.2783	1225.56	1	0	0	0		$|
1722370	0	object/static/structure/naboo/gate_wide_s01.iff	0	586.41	3.75	1345.84	0.947651	0	-0.319309	0		$|
1722371	0	object/static/structure/naboo/gate_narrow_s02.iff	0	876.901	3.7853	1279.67	0.915278	0	0.402822	0		$|
1722372	0	object/static/structure/naboo/nboo_imprv_pillar_pillar_s02.iff	0	879.611	3.7853	1276.4	0.932039	0	-0.362358	0		$|
1722373	0	object/static/structure/naboo/nboo_imprv_pillar_pillar_s02.iff	0	874.029	3.7853	1282.63	0.915278	0	0.402822	0		$|
1722375	0	object/static/structure/naboo/nboo_imprv_pristine_wall_sml_s03.iff	0	879.525	3.75	1276.92	-0.689498	0	0.724287	0		$|
1722376	0	object/static/structure/naboo/nboo_imprv_pillar_pillar_s02.iff	0	879.962	3.75	1266.95	0.999875	0	-0.015796	0		$|
1722378	0	object/building/naboo/housing_naboo_style_3.iff	0	752.775	3.75	1340.69	0.707107	0	0.707107	0		$|
1722381	0	object/static/structure/naboo/garden_gazebo_lg_s01.iff	0	748.266	3.75	1360.9	1	0	0	0		$|
1722388	0	object/static/structure/naboo/wallend_a1_naboo_theed_style_1.iff	0	580.442	-0.708708	1341.28	0.947651	0	-0.319309	0		$|
1722389	0	object/static/structure/naboo/wallend_a1_naboo_theed_style_1.iff	0	592.34	-0.587918	1350.35	0.319309	0	0.947651	0		$|
1722390	0	object/static/structure/naboo/elevated_walkway_cap_s01.iff	0	601.623	-3.22568	1326.22	0.893822	0	0.448423	0		$|
1722391	0	object/static/structure/naboo/street_bridge_s01.iff	0	598.634	-3.23998	1330.23	0.893822	0	0.448423	0		$|
1722392	0	object/static/structure/naboo/elevated_walkway_cap_s01.iff	0	595.646	-3.38824	1334.24	0.893822	0	0.448423	0		$|
1722393	0	object/static/structure/naboo/gungan_wall_ruined_lg_s02.iff	0	850.684	6.60044	1436.6	0.988243	0	-0.152893	0		$|
1722394	0	object/static/structure/naboo/gungan_wall_ruined_lg_s01.iff	0	854.017	6.5828	1425.33	0.135379	0	0.990794	0		$|
1722395	0	object/static/structure/naboo/gungan_pillar_ruined_s01.iff	0	853.011	6.59042	1428.1	0.140332	0	0.990105	0		$|
1722396	0	object/static/structure/naboo/gungan_pillar_ruined_s01.iff	0	848.838	6.62582	1445.01	-0.681056	0	0.732231	0		$|
1722397	0	object/static/structure/naboo/gungan_pillar_ruined_s01.iff	0	877.663	6.47004	1453.51	-0.600878	0	0.79934	0		$|
1722398	0	object/static/structure/naboo/gungan_wall_ruined_sm_s01.iff	0	849.087	6.59844	1443.07	0.0856914	0	0.996322	0		$|
1722399	0	object/static/structure/naboo/gungan_wall_ruined_lg_s01.iff	0	859.035	6.8413	1447.86	-0.596877	0	0.802333	0		$|
1722400	0	object/static/structure/naboo/gungan_wall_ruined_lg_s02.iff	0	870.134	6.73427	1451.31	0.812773	0	0.58258	0		$|
1722401	0	object/static/structure/naboo/gungan_wall_ruined_sm_s01.iff	0	850.383	6.5999	1445.34	-0.64753	-0.00685594	0.761831	-0.0164759		$|
1722402	0	object/static/structure/naboo/gungan_pillar_ruined_s01.iff	0	861.755	6.91421	1449.01	-0.592856	0	0.805309	0		$|
1722403	0	object/static/structure/naboo/gungan_wall_ruined_sm_s01.iff	0	875.799	6.52546	1453.07	-0.608843	0	0.793291	0		$|
1722404	0	object/static/structure/naboo/gungan_wall_ruined_lg_s01.iff	0	879.903	6.50763	1445.87	0.140332	0	0.990105	0		$|
1722405	0	object/static/structure/naboo/gungan_pillar_ruined_s01.iff	0	878.916	6.45433	1448.76	0.990105	0	-0.140332	0		$|
1722406	0	object/static/structure/naboo/gungan_pillar_ruined_s01.iff	0	882.235	6.56945	1437.95	0.990105	0	-0.140332	0		$|
1722408	0	object/static/structure/naboo/gungan_statue_s01.iff	0	875.815	15.0308	1429.4	0.140332	0	0.990105	0		$|
1722409	0	object/static/structure/naboo/gungan_statue_s01.iff	0	862.31	14.9975	1425.92	0.140332	0	0.990105	0		$|
1722410	0	object/static/structure/naboo/gungan_wall_ruined_sm_s01.iff	0	884.875	6.29966	1428.81	0.100626	0	0.994924	0		$|
1722411	0	object/static/structure/naboo/gungan_wall_ruined_sm_s02.iff	0	885.845	6.23233	1425.14	0.140332	0	0.990105	0		$|
1722412	0	object/static/structure/naboo/gungan_wall_ruined_sm_s01.iff	0	864.872	6.04495	1417.46	0.777574	0.0837689	0.623067	0.0122437		$|
1722413	0	object/static/structure/naboo/gungan_wall_ruined_sm_s01.iff	0	861.08	6.11405	1416.51	-0.623379	-0.0118486	0.781665	-0.0160359		$|
1722414	0	object/static/structure/naboo/gungan_wall_ruined_sm_s02.iff	0	857.611	6.25017	1415.66	-0.60088	0	0.799339	0		$|
1722415	0	object/static/structure/naboo/gungan_wall_ruined_sm_s01.iff	0	856.327	6.38313	1416.47	0.0858057	-0.0165316	0.996152	-0.00671959		$|
1722416	0	object/static/structure/naboo/gungan_pillar_ruined_s01.iff	0	856.414	6.3273	1415.31	0.155217	-0.016427	0.987741	-0.00250455		$|
1722417	0	object/static/structure/naboo/gungan_wall_ruined_lg_s02.iff	0	883.583	6.4623	1433.97	0.155167	0	0.987888	0		$|
1722418	0	object/static/structure/naboo/gungan_pillar_ruined_s01.iff	0	885.683	6.21213	1424	0.993289	0.00636721	-0.110888	-0.0322365		$|
1722419	0	object/static/structure/naboo/gungan_wall_ruined_sm_s02.iff	0	884.461	6.18733	1423.71	0.767923	0.0321254	0.639642	-0.0109708		$|
1722420	0	object/static/structure/naboo/gungan_wall_ruined_sm_s01.iff	0	881.743	6.16909	1423.01	0.793626	0.0182827	0.607933	-0.0155223		$|
1722421	0	object/static/structure/naboo/gungan_wall_ruined_sm_s01.iff	0	878.363	6.1186	1421.9	-0.559354	-0.00524237	0.828846	-0.0105214		$|
1722422	0	object/static/structure/naboo/gungan_wall_ruined_lg_s02.iff	0	868.485	6.10752	1413.97	0.140332	0	0.990105	0		$|
1722423	0	object/static/structure/naboo/gungan_wall_ruined_lg_s02.iff	0	877.583	6.22049	1417.14	0.987888	0	-0.155167	0		$|
1722424	0	object/static/structure/naboo/gungan_pillar_ruined_s01.iff	0	867.077	6.04295	1417.9	0.140332	0	0.990105	0		$|
1722425	0	object/static/structure/naboo/gungan_pillar_damaged_s01.iff	0	876.527	6.08872	1421.2	0.140332	0	0.990105	0		$|
1722426	0	object/static/structure/naboo/gungan_pillar_ruined_s01.iff	0	869.838	6.34137	1409.6	-0.613746	0	0.789504	0		$|
1722427	0	object/static/structure/naboo/gungan_pillar_ruined_s01.iff	0	878.877	6.48236	1413.09	0.818734	0	0.574172	0		$|
1722428	0	object/static/structure/naboo/gungan_statue_s02.iff	0	871.007	6.06987	1410.48	0.140332	0	0.990105	0		$|
1722430	0	object/static/structure/naboo/gungan_statue_s04.iff	0	877.654	6.15241	1412.46	0.140332	0	0.990105	0		$|
1722431	0	object/static/installation/mockup_mining_gas_harvester_style_1.iff	0	650.007	3.75	1159.39	1	0	0	0		$|
1722432	0	object/static/installation/mockup_mining_liquid_harvester_style_1.iff	0	624.53	3.75	1130.12	0.710634	0	-0.703562	0		$|
1722433	0	object/static/structure/general/tankfarm_s01.iff	0	803.559	3.75	1258.98	0.0203972	0	0.999792	0		$|
1722434	0	object/static/structure/general/tankfarm_s01.iff	0	795.656	3.72771	1261.16	0.999792	0	-0.0203965	0		$|
1722435	0	object/static/installation/mockup_mining_liquid_harvester_style_1.iff	0	800.727	3.75	1254.76	0.0146013	0	0.999893	0		$|
1722436	0	object/static/structure/general/tankfarm_s01.iff	0	904.866	3.4665	1182.68	1	0	0	0		$|
1722437	0	object/static/structure/general/tankfarm_s01.iff	0	934.799	3.75	1245.02	1	0	0	0		$|
1722438	0	object/static/installation/mockup_mining_gas_harvester_style_1.iff	0	928.362	3.75	1235.45	1	0	0	0		$|
1722439	0	object/static/installation/mockup_mining_liquid_harvester_style_1.iff	0	922.809	3.75	1257.75	1	0	0	0		$|
1722458	0	object/static/structure/general/nboo_imprv_flower_urn_s01.iff	0	821.112	3.75	1239.8	1	0	0	0		$|
1722461	0	object/tangible/furniture/all/frn_all_potted_plants_sml_s02.iff	0	828.76	4.75386	1242.37	1	0	0	0		$|
1722462	0	object/tangible/furniture/all/frn_all_potted_plants_sml_s02.iff	0	813.443	4.7503	1242.29	1	0	0	0		$|
1722465	0	object/tangible/furniture/all/frn_all_potted_plants_sml_s02.iff	0	814.219	4.74036	1187.79	-0.000000032	0	1	0		$|
1722466	0	object/tangible/furniture/all/frn_all_potted_plants_sml_s02.iff	0	830.418	1.89187	1187.8	-0.000000032	0	1	0		$|
1722467	0	object/static/structure/general/nboo_imprv_flower_urn_s01.iff	0	822.209	3.75	1190.36	-0.000000032	0	1	0		$|
1722468	0	object/static/structure/naboo/nboo_imprv_short_curved_wall_small_s01.iff	0	813.243	3.75	1190.3	0.707107	0	0.707107	0		$|
1722469	0	object/static/structure/naboo/nboo_imprv_pillar_pillar_s03.iff	0	817.243	3.75	1186.3	1	0	0	0		$|
1722470	0	object/static/structure/naboo/nboo_imprv_pillar_pillar_s03.iff	0	827.243	3.75	1186.3	1	0	0	0		$|
1722471	0	object/static/structure/naboo/nboo_imprv_short_curved_wall_small_s01.iff	0	827.243	3.75	1186.3	1	0	0	0		$|
1722476	0	object/tangible/furniture/all/frn_all_potted_plants_sml_s02.iff	0	830.73	4.75301	1187.96	0	0	1	0		$|
1722489	0	object/static/structure/general/streetlamp_large_style_01.iff	0	835.025	3.75	1304.93	-0.399339	0	0.916803	0		$|
1722490	0	object/static/structure/general/streetlamp_large_style_01.iff	0	850.894	4.22434	1307.04	-0.39934	0	0.916803	0		$|
1722492	0	object/static/structure/general/streetlamp_large_style_01.iff	0	812.913	6.2482	1327.59	-0.357693	0	0.93384	0		$|
1722493	0	object/static/structure/general/streetlamp_large_style_01.iff	0	796.64	6.2482	1342.17	-0.357693	0	0.93384	0		$|
1722496	0	object/static/structure/general/streetlamp_large_style_01.iff	0	751.765	11.1472	1382.74	0.825336	0	0.564642	0		$|
1722499	0	object/static/structure/general/streetlamp_large_style_01.iff	0	750.15	3.75	1303.78	-0.262678	0	0.964884	0		$|
1722500	0	object/static/structure/general/streetlamp_large_style_01.iff	0	718.562	3.75	1324.88	-0.329521	0	0.944148	0		$|
1722503	0	object/static/structure/naboo/nboo_imprv_pillar_pillar_s02.iff	0	652.725	3.75	1316.17	0.900447	0	-0.434966	0		$|
1722504	0	object/static/structure/naboo/nboo_imprv_pillar_pillar_s02.iff	0	644.288	3.75	1303.67	0.900447	0	-0.434966	0		$|
1722505	0	object/static/structure/naboo/nboo_imprv_pristine_wall_sml_s03.iff	0	643.856	3.75	1304.03	0.947651	0	0.319309	0		$|
1722506	0	object/static/structure/general/streetlamp_large_style_01.iff	0	626.425	3.77772	1315.09	-0.343646	0	0.939099	0		$|
1722510	0	object/static/structure/naboo/archway_wide_s02.iff	0	606.208	3.75	1238.2	0.350123	0	0.936704	0		$|
1722511	0	object/static/structure/naboo/archway_wide_s02.iff	0	606.002	3.75	1262.5	0.940158	0	0.340739	0		$|
1722512	0	object/static/structure/naboo/archway_wide_s02.iff	0	612.008	3.75	1250.28	0.707107	0	0.707106	0		$|
1722513	0	object/static/structure/naboo/nboo_imprv_pillar_pillar_s01.iff	0	611.839	3.75	1242.61	0.00500004	0	0.999987	0		$|
1722514	0	object/static/structure/naboo/nboo_imprv_pillar_pillar_s01.iff	0	611.833	3.75	1257.52	0.710633	0	0.703562	0		$|
1722522	0	object/static/structure/general/streetlamp_large_style_01.iff	0	705.499	6.21658	1161.68	1	0	0	0		$|
1722545	0	object/static/structure/general/tankfarm_s01.iff	0	765.983	3.75	1203.85	0.707107	0	-0.707106	0		$|
1722546	0	object/static/structure/general/tankfarm_s01.iff	0	765.997	3.75	1226.79	0.707107	0	-0.707106	0		$|
1722548	0	object/static/installation/mockup_mining_gas_harvester_style_1.iff	0	765.487	3.75	1215.06	1	0	0	0		$|
1722549	0	object/tangible/terminal/terminal_mission.iff	0	719.427	6.23495	1161.51	1	0	0	0		$|
1722550	0	object/tangible/terminal/terminal_mission.iff	0	698.962	6.23026	1161.45	1	0	0	0		$|
1722551	0	object/tangible/terminal/terminal_mission.iff	0	620.478	6.21521	1177.26	1	0	0	0		$|
1722554	0	object/tangible/terminal/terminal_mission.iff	0	631.652	6.21521	1177.28	1	0	0	0		$|
1722556	0	object/static/structure/general/nboo_imprv_flower_urn_s01.iff	0	636.694	6.24931	1177.45	0.999987	0	-0.00499998	0		$|
1722559	0	object/static/structure/general/nboo_imprv_flower_urn_s01.iff	0	615.112	6.24931	1177.48	0.703563	0	0.710633	0		$|
1722562	0	object/static/structure/general/nboo_imprv_flower_urn_s01.iff	0	591.622	4.73	1239.22	0.999987	0	-0.00499998	0		$|
1722565	0	object/static/structure/general/nboo_imprv_flower_urn_s01.iff	0	591.614	4.73	1261.24	0.707108	0	-0.707106	0		$|
1722567	0	object/static/structure/naboo/gungan_statue_s01.iff	0	588.096	4.7303	1243.35	0.357693	0	0.933839	0		$|
1722569	0	object/static/structure/naboo/gungan_statue_s03.iff	0	587.972	4.76193	1257.01	0.900447	0	0.434966	0		$|
1722570	0	object/tangible/terminal/terminal_mission.iff	0	809.806	3.75	1320.31	-0.359469	0	0.933157	0		$|
1722571	0	object/tangible/terminal/terminal_mission.iff	0	789.838	3.75	1338.34	-0.354799	0	0.934943	0		$|
1722578	0	object/tangible/furniture/all/frn_all_potted_plants_sml_s01.iff	0	757.761	4.2512	1302.15	1	0	0	0		$|
1722579	0	object/tangible/furniture/all/frn_all_potted_plants_sml_s02.iff	0	751.501	4.22126	1304.71	0.971338	0	-0.237703	0		$|
1722580	0	object/static/structure/naboo/arbor_long_s01.iff	0	739.744	3.97136	1273.95	-0.324796	0	0.945784	0		$|
1722581	0	object/static/structure/naboo/arbor_corner_90_s01.iff	0	744.66	3.97136	1280.26	-0.324796	0	0.945784	0		$|
1722582	0	object/static/structure/naboo/arbor_long_s01.iff	0	737.998	3.97136	1287.98	0.898436	0	-0.439105	0		$|
1722583	0	object/static/structure/naboo/arbor_long_s01.iff	0	697.696	3.97136	1307.25	-0.329521	0	0.944148	0		$|
1722584	0	object/static/structure/naboo/arbor_corner_90_s01.iff	0	705.484	3.97136	1313.83	0.434607	0	0.90062	0		$|
1722585	0	object/static/structure/naboo/arbor_long_s01.iff	0	711.747	3.97136	1308.86	0.434607	0	0.90062	0		$|
1722586	0	object/static/structure/naboo/arbor_long_s01.iff	0	678.531	3.97136	1266.89	0.434607	0	0.90062	0		$|
1722587	0	object/static/structure/naboo/arbor_corner_90_s01.iff	0	671.947	3.97136	1274.68	0.944148	0	0.329521	0		$|
1722588	0	object/static/structure/naboo/arbor_long_s01.iff	0	676.924	3.97136	1280.94	0.944148	0	0.329521	0		$|
1722589	0	object/static/structure/naboo/arbor_long_s01.iff	0	718.905	3.93974	1247.7	0.944148	0	0.32952	0		$|
1722590	0	object/static/structure/naboo/arbor_corner_90_s01.iff	0	711.117	3.93974	1241.12	0.90062	0	-0.434607	0		$|
1722591	0	object/static/structure/naboo/arbor_long_s01.iff	0	704.855	3.93974	1246.09	0.90062	0	-0.434607	0		$|
2776060	0	object/tangible/furniture/all/frn_bench_generic.iff	0	812.418	6.2482	1335.44	-0.663731	0	0.747971	0		$|
2776061	0	object/tangible/furniture/all/frn_bench_generic.iff	0	813.041	6.24821	1331.52	-0.663731	0	0.747971	0		$|
2776062	0	object/tangible/furniture/all/frn_bench_generic.iff	0	804.595	6.2482	1342.48	-0.0103981	0	0.999946	0		$|
2776063	0	object/tangible/furniture/all/frn_bench_generic.iff	0	800.576	6.2482	1342.65	-0.010398	0	0.999946	0		$|
2776064	0	object/tangible/furniture/all/frn_bench_generic.iff	0	618.094	6.249	1177.43	1	0	0	0		$|
2776065	0	object/tangible/furniture/all/frn_bench_generic.iff	0	615.169	6.249	1180.47	0.707107	0	0.707107	0		$|
2776066	0	object/tangible/furniture/all/frn_bench_generic.iff	0	636.688	6.249	1180.44	0.707107	0	-0.707106	0		$|
2776067	0	object/tangible/furniture/all/frn_bench_generic.iff	0	634.25	6.249	1177.47	1	0	0	0		$|
2776068	0	object/tangible/furniture/all/frn_bench_generic.iff	0	588.657	4.73	1239.2	1	0	0	0		$|
2776069	0	object/tangible/furniture/all/frn_bench_generic.iff	0	591.375	4.73	1242.07	0.707108	0	-0.707106	0		$|
2776070	0	object/tangible/furniture/all/frn_bench_generic.iff	0	588.605	4.73	1261.27	-0.000000032	0	1	0		$|
2776071	0	object/tangible/furniture/all/frn_bench_generic.iff	0	591.616	4.73	1258.24	0.707107	0	-0.707106	0		$|
2776098	0	object/tangible/furniture/all/frn_bench_generic.iff	0	695.339	6.249	1165.76	0.707107	0	0.707106	0		$|
2776099	0	object/tangible/furniture/all/frn_bench_generic.iff	0	723.158	6.249	1165.57	0.707107	0	-0.707106	0		$|
2776100	0	object/tangible/furniture/all/frn_bench_generic.iff	0	818.414	3.75	1239.84	1	0	0	0		$|
2776101	0	object/tangible/furniture/all/frn_bench_generic.iff	0	823.556	3.75	1239.8	1	0	0	0		$|
2776102	0	object/tangible/furniture/all/frn_bench_generic.iff	0	819.534	3.75	1190.3	-0.000000032	0	1	0		$|
2776103	0	object/tangible/furniture/all/frn_bench_generic.iff	0	824.749	3.75	1190.29	-0.000000032	0	1	0		$|
3575388	0	object/static/structure/naboo/nboo_imprv_pillar_pillar_s01.iff	0	951.943	3.75	1221.04	1	0	-0.0004	0		$|
3575407	0	object/static/structure/naboo/nboo_imprv_lattice_wall_short_s01.iff	0	952.157	3.75	1243.51	0.707111	0	-0.707102	0		$|
3575408	0	object/static/structure/naboo/nboo_imprv_lattice_wall_short_s01.iff	0	952.246	3.75	1251.4	0.707111	0	-0.707102	0		$|
3955372	0	object/tangible/terminal/terminal_bazaar.iff	0	782.649	3.75	1293.21	0.99976	0	-0.0219035	0		$|
4015378	0	object/static/structure/naboo/wallend_a1_naboo_theed_style_1.iff	0	902.032	2.11126	1252.73	0.707107	0	0.707106	0		$|
4015379	0	object/static/structure/naboo/wallend_a1_naboo_theed_style_1.iff	0	898.853	2.11126	1168.25	1	0	0	0		$|
4015380	0	object/static/structure/naboo/gate_narrow_s02.iff	0	888.698	3.75	1173.08	0.707113	0	0.7071	0		$|
4015381	0	object/static/structure/naboo/wallend_a1_naboo_theed_style_1.iff	0	899.615	2.11126	1178.09	0.707107	0	-0.707106	0		$|
4015382	0	object/static/structure/naboo/wall_a1_naboo_theed_style_1.iff	0	902.036	2.11126	1234.79	0.707107	0	0.707107	0		$|
4015383	0	object/static/structure/naboo/wall_a1_naboo_theed_style_1.iff	0	882.103	2.11126	1234.32	-0.000000263	0	1	0		$|
4015384	0	object/static/structure/naboo/nboo_imprv_pillar_pillar_s01.iff	0	881.543	3.75	1234.44	1	0	0	0		$|
4015385	0	object/static/structure/naboo/nboo_imprv_lattice_wall_short_s01.iff	0	888.715	3.75	1177.09	0.707107	0	-0.707106	0		$|
4215406	0	object/building/naboo/starport_naboo.iff	0	631.584	4.17	1494.34	0.466913	0	0.884303	0	structure.municipal.starport	travel.air_time|0|60|travel.cost|0|150|travel.ground_time|0|300|travel.point_name|4|Moenia Starport|travel.shuttle_available|0|1|travel.version|0|3|$|
4215407	4215406	object/cell/cell.iff	1	0	0	0	1	0	0	0		$|
4215408	4215406	object/cell/cell.iff	2	0	0	0	1	0	0	0		$|
4215409	4215406	object/cell/cell.iff	3	0	0	0	1	0	0	0		$|
4215410	4215406	object/cell/cell.iff	4	0	0	0	1	0	0	0		$|
3737702	4215410	object/tangible/ground_spawning/mob_spawner.iff	4	15.1	0.6	56.6	1	0	0	0		$|
4295489	4215410	object/tangible/space/content_infrastructure/ground_npc_spawner.iff	4	2.19	0.64	67.12	0	0	1	0		$|
1270284	4215410	object/tangible/terminal/terminal_space.iff	4	-1.2022	0.639421	58.2451	-0.700286	0	0.713862	0		$|
1270285	4215410	object/tangible/terminal/terminal_space.iff	4	0.906178	0.639421	58.2273	0.709788	0	0.704416	0		$|
4735421	4215410	object/tangible/terminal/terminal_newsnet.iff	4	15.6853	0.639421	52.6425	0.904752	0	-0.425939	0		$|
4735422	4215410	object/tangible/terminal/terminal_newsnet.iff	4	-15.7468	0.639421	54.7049	0.735088	0	0.677972	0		$|
4215411	4215406	object/cell/cell.iff	5	0	0	0	1	0	0	0		$|
4215412	4215406	object/cell/cell.iff	6	0	0	0	1	0	0	0		$|
4215413	4215406	object/cell/cell.iff	7	0	0	0	1	0	0	0		$|
4215414	4215406	object/cell/cell.iff	8	0	0	0	1	0	0	0		$|
4215415	4215406	object/cell/cell.iff	9	0	0	0	1	0	0	0		$|
4215416	4215406	object/cell/cell.iff	10	0	0	0	1	0	0	0		$|
4295485	4215416	object/tangible/terminal/terminal_space.iff	10	-37.9215	1.63942	49.1911	0.754832	0	-0.655918	0		$|
4295486	4215416	object/tangible/terminal/terminal_space.iff	10	-40.1423	1.63942	46.9938	0.988711	0	-0.149832	0		$|
4295487	4215416	object/tangible/terminal/terminal_space.iff	10	-42.9125	1.63942	51.1646	0.413409	0	0.910545	0		$|
4215417	4215406	object/cell/cell.iff	11	0	0	0	1	0	0	0		$|
4215418	4215406	object/cell/cell.iff	12	0	0	0	1	0	0	0		$|
4795490	4215418	object/tangible/space/content_infrastructure/ground_npc_spawner.iff	12	-45.3	2.6	31.4	0.79335	0	-0.60876	0		$|
4215419	4215406	object/cell/cell.iff	13	0	0	0	1	0	0	0		$|
4215420	4215406	object/cell/cell.iff	14	0	0	0	1	0	0	0		$|
4215421	4215406	object/cell/cell.iff	15	0	0	0	1	0	0	0		$|
4215422	4215406	object/cell/cell.iff	16	0	0	0	1	0	0	0		$|
4245367	0	object/building/naboo/housing_naboo_style_3.iff	0	557.03	3.92403	1441.65	0.88911	0	0.457693	0		$|
4776020	0	object/tangible/terminal/terminal_bazaar.iff	0	691.118	4.38104	1291.11	0.432893	0	0.901446	0		$|
4776021	0	object/tangible/terminal/terminal_bazaar.iff	0	721.968	4.35655	1294.68	-0.331318	0	0.94352	0		$|
4776022	0	object/tangible/terminal/terminal_bazaar.iff	0	725.486	4.37798	1263.86	0.901445	0	-0.432893	0		$|
4776023	0	object/tangible/terminal/terminal_bazaar.iff	0	694.674	4.30058	1260.27	0.943519	0	0.331318	0		$|
4795484	0	object/static/structure/general/streetlamp_large_style_01_on.iff	0	675.162	6.1	1347.3	-0.512161	0	0.858889	0		$|
4795485	0	object/static/structure/general/streetlamp_large_style_01_on.iff	0	662.469	6.1	1345.45	0.549946	0	0.8352	0		$|
4855366	0	object/tangible/terminal/terminal_bazaar.iff	0	562.873	4.17	1526.34	0.92388	0	-0.382683	0		$|
4855367	0	object/tangible/terminal/terminal_bazaar.iff	0	559.671	4.17	1521.9	-0.707107	0	0.707107	0		$|
4855368	0	object/tangible/terminal/terminal_bazaar.iff	0	579.961	4.17	1550.83	0.92388	0	-0.382683	0		$|
4855369	0	object/tangible/terminal/terminal_bazaar.iff	0	577.057	4.17	1546.68	-0.707107	0	0.707107	0		$|
4855370	0	object/static/structure/tatooine/debris_tatt_drum_storage_1.iff	0	561.839	4.17	1525.14	1	0	0	0		$|
4855374	0	object/static/structure/tatooine/debris_tatt_drum_storage_2.iff	0	560.105	4.17	1523.23	0.990901	0	-0.13459	0		$|
4855375	0	object/static/structure/tatooine/debris_tatt_drum_storage_1.iff	0	562.37	4.17	1524.19	0.896053	0	-0.443948	0		$|
4855376	0	object/static/structure/tatooine/debris_tatt_drum_storage_1.iff	0	561.873	4.17	1523.46	0.975897	0	0.21823	0		$|
4855377	0	object/static/structure/tatooine/debris_tatt_drum_storage_1.iff	0	562.176	5.05544	1523.83	-0.27559	0	0.961275	0		$|
4855378	0	object/static/structure/tatooine/debris_tatt_crate_metal_1.iff	0	561.223	4.17	1524.04	0.751806	0	-0.659385	0		$|
4855379	0	object/static/structure/tatooine/debris_tatt_drum_storage_1.iff	0	577.521	4.17	1549.5	0.783822	0	-0.620986	0		$|
4855380	0	object/static/structure/tatooine/debris_tatt_drum_storage_1.iff	0	578.568	4.17	1549.8	-0.42666	0	0.904412	0		$|
4855381	0	object/static/structure/tatooine/debris_tatt_drum_storage_1.iff	0	579.165	4.17	1549.15	0.900447	0	-0.434965	0		$|
4855382	0	object/static/structure/tatooine/debris_tatt_drum_storage_1.iff	0	578.869	5.05544	1549.53	0.380925	0	0.924606	0		$|
4855383	0	object/static/structure/tatooine/debris_tatt_crate_metal_1.iff	0	578.443	4.17	1548.65	-0.179812	0	0.983701	0		$|
4855384	0	object/static/structure/tatooine/debris_tatt_drum_storage_1.iff	0	578.219	4.17	1547.8	0.979061	0	0.203567	0		$|
4855385	0	object/static/structure/tatooine/debris_tatt_crate_metal_1.iff	0	577.43	4.17	1548.42	-0.640996	0	0.767544	0		$|
4855386	0	object/static/structure/tatooine/debris_tatt_crate_metal_1.iff	0	577.009	4.17	1547.93	-0.426659	0	0.904413	0		$|
4855387	0	object/static/item/item_container_organic_food.iff	0	584.551	4.17	1557.03	0.893822	0	-0.448423	0		$|
4855388	0	object/static/item/item_container_organic_hide.iff	0	558.705	4.17	1519.4	0.953847	0	0.300293	0		$|
4855389	0	object/static/item/item_container_organic_structure.iff	0	554.391	4.17	1513.2	0.990216	0	0.139543	0		$|
4855390	0	object/static/item/item_container_inorganic_minerals.iff	0	573.583	5.05544	1542.1	0.875174	0	-0.483807	0		$|
4855391	0	object/static/item/item_container_inorganic_chemicals.iff	0	565.245	4.17	1529.2	1	0	0	0		$|
4855392	0	object/static/structure/tatooine/debris_tatt_crate_metal_1.iff	0	583.671	4.17	1556.73	0.379453	0	0.925211	0		$|
4855393	0	object/static/item/item_container_organic_food.iff	0	584.082	4.17	1556.4	0.915116	0	-0.40319	0		$|
4855394	0	object/static/item/item_container_organic_food.iff	0	583.878	4.17	1556.02	0.860268	0	-0.509842	0		$|
4855395	0	object/static/item/item_container_organic_food.iff	0	583.734	4.17	1555.62	0.860268	0	-0.509842	0		$|
4855396	0	object/static/item/item_container_organic_food.iff	0	583.44	4.17	1555.85	0.860268	0	-0.509842	0		$|
4855397	0	object/static/item/item_container_organic_food.iff	0	584.657	4.17	1557.77	0.893821	0	-0.448423	0		$|
4855398	0	object/static/item/item_container_organic_food.iff	0	584.308	4.17	1557.45	0.893821	0	-0.448423	0		$|
4855399	0	object/static/item/item_container_organic_food.iff	0	583.365	4.17	1555.31	0.728271	0	-0.685289	0		$|
4855400	0	object/static/item/item_container_organic_food.iff	0	583.053	4.17	1555.98	0.728272	0	-0.685288	0		$|
4855401	0	object/static/item/item_container_organic_food.iff	0	582.936	4.17	1555.52	0.728272	0	-0.685288	0		$|
4855402	0	object/static/item/item_container_inorganic_minerals.iff	0	573.246	4.17	1541.75	0.466208	0	0.884675	0		$|
4855403	0	object/static/item/item_container_inorganic_minerals.iff	0	573.783	4.17	1542.49	0.884675	0	-0.466208	0		$|
4855404	0	object/static/item/item_container_inorganic_minerals.iff	0	570.961	4.17	1537.92	-0.362358	0	0.932039	0		$|
4855405	0	object/static/item/item_container_inorganic_minerals.iff	0	569.773	4.17	1536.14	-0.233617	0	0.972329	0		$|
4855406	0	object/static/item/item_container_inorganic_minerals.iff	0	570.282	5.05544	1537.11	-0.305817	0	0.95209	0		$|
4855407	0	object/static/item/item_container_inorganic_minerals.iff	0	568.928	4.17	1537.16	-0.262678	0	0.964884	0		$|
4855408	0	object/static/item/item_container_inorganic_chemicals.iff	0	564.66	4.17	1528.88	1	0	0	0		$|
4855409	0	object/static/item/item_container_inorganic_chemicals.iff	0	564.487	4.51785	1528.37	0.950796	0	0.309816	0		$|
4855410	0	object/static/item/item_container_inorganic_chemicals.iff	0	564.256	4.17	1528	0.893822	0	-0.448423	0		$|
4855411	0	object/static/item/item_container_organic_structure.iff	0	553.434	4.17	1513.18	0.990216	0	0.139543	0		$|
4855412	0	object/static/item/item_container_organic_structure.iff	0	553.563	4.17	1512.34	0.990216	0	0.139543	0		$|
4855417	0	object/static/item/item_container_organic_structure.iff	0	553.772	4.17	1513.91	0.703845	0	0.710353	0		$|
4855419	0	object/static/item/item_container_organic_structure.iff	0	552.715	4.17	1514.47	0.703845	0	0.710353	0		$|
4855420	0	object/static/item/item_container_organic_hide.iff	0	558.322	4.17	1518.78	0.953847	0	0.300293	0		$|
4855421	0	object/static/item/item_container_organic_hide.iff	0	557.895	4.17	1518.13	0.953847	0	0.300293	0		$|
4855423	0	object/static/item/item_container_organic_hide.iff	0	558.125	4.5811	1518.45	0.953847	0	0.300293	0		$|
4855449	0	object/tangible/crafting/station/public_weapon_station.iff	0	633.854	3.75	1208.89	-0.214125	0	0.976806	0		$|
4855450	0	object/tangible/crafting/station/public_weapon_station.iff	0	624.702	3.75	1209.74	0.193767	0	0.981048	0		$|
4855451	0	object/static/structure/naboo/gungan_wall_ruined_lg_s02.iff	0	622.399	1.89512	1210.67	-0.564972	0	0.82511	0		$|
4855452	0	object/static/structure/naboo/gungan_wall_ruined_lg_s02.iff	0	634.521	1.62884	1210.16	0.551867	0	0.833932	0		$|
4855453	0	object/static/structure/naboo/gungan_wall_ruined_sm_s01.iff	0	628.472	3.5695	1211.94	0.717911	0	-0.696135	0		$|
4855456	0	object/tangible/crafting/station/public_structure_station.iff	0	690.322	3.75	1172.34	-0.707107	0	0.707107	0		$|
4855457	0	object/tangible/crafting/station/public_structure_station.iff	0	727.81	3.75	1170.66	0.700001	0	0.714143	0		$|
4855467	0	object/tangible/crafting/station/public_clothing_station.iff	0	788.604	3.75	1344.89	0.934124	0	0.356949	0		$|
4855468	0	object/tangible/crafting/station/public_food_station.iff	0	842.427	3.75	1294.15	0.707389	0	-0.706825	0		$|
4855469	0	object/tangible/crafting/station/public_clothing_station.iff	0	821.49	3.75	1311.42	0.935897	0	-0.352274	0		$|
4855470	0	object/tangible/crafting/station/public_food_station.iff	0	831.858	3.75	1305.87	-0.0757238	0	0.997129	0		$|
4855474	0	object/static/flora/potted_plant_flowers_orange.iff	0	848.24	3.75	1338.43	1	0	0	0		$|
4855475	0	object/static/flora/potted_plant_flowers_purple.iff	0	849.499	3.75	1339.58	1	0	0	0		$|
4855476	0	object/static/flora/potted_plant_flowers_orange.iff	0	850.662	3.75	1336.39	1	0	0	0		$|
4855477	0	object/static/flora/potted_plant_flowers_purple.iff	0	851.921	3.75	1337.54	1	0	0	0		$|
4855478	0	object/static/flora/potted_plant_flowers_orange.iff	0	852.628	3.75	1334.3	1	0	0	0		$|
4855479	0	object/static/flora/potted_plant_flowers_purple.iff	0	853.887	3.75	1335.46	1	0	0	0		$|
4855480	0	object/static/flora/potted_plant_flowers_orange.iff	0	854.502	3.75	1331.95	1	0	0	0		$|
4855481	0	object/static/flora/potted_plant_flowers_purple.iff	0	855.762	3.75	1333.1	1	0	0	0		$|
4855485	0	object/tangible/terminal/terminal_mission.iff	0	697.525	4.17	1441.5	0.458046	0	0.888928	0		$|
4855487	0	object/tangible/terminal/terminal_mission.iff	0	705.081	4.17	1452.64	0.458046	0	0.888928	0		$|
4855717	0	object/tangible/terminal/terminal_mission.iff	0	599.303	3.75	1266.98	5.30747E-08	0	1	0		$|
4855719	0	object/tangible/terminal/terminal_mission.iff	0	599.597	3.75	1233.78	1	0	0	0		$|
5036450	0	object/static/item/item_scrolling_screen.iff	0	664.632	8.77047	1348.76	0.958244	0	0.285952	0		$|
5036451	0	object/static/item/item_scrolling_screen.iff	0	671.396	8.71604	1350.34	0.462486	0	0.886627	0		$|
5036453	0	object/static/item/item_tech_console_sectional_c.iff	0	666.374	6.01233	1350.09	-0.652437	0	0.757843	0		$|
5036449	0	object/tangible/space/content_infrastructure/ground_npc_spawner.iff	0	668	6.01233	1349	0.08715	0	-0.99619	0		$|
1143536	0	object/tangible/space/content_infrastructure/ground_npc_spawner.iff	0	670	6.01233	1349	0.224951	0	0.97437	0		$|
91574	0	object/tangible/space/content_infrastructure/ground_npc_spawner.iff	0	707.2	4.2	1444	1	0	0	0		$|
5285763	0	object/building/general/naboo_narglatch_cave.iff	0	1744.6	41.077	1508.74	0.0799147	0	0.996802	0		$|
5285895	5285763	object/cell/cell.iff	1	0	0	0	1	0	0	0		$|
5285917	5285895	object/tangible/poi/spawnegg/interior_spawnegg.iff	1	-1.064367056	-12.25279236	-9.649842262	1	0	0	0		intRandomYaw|0|1|$|
5285918	5285895	object/tangible/poi/spawnegg/interior_spawnegg.iff	1	20.75439835	-27.00740814	-7.635478973	1	0	0	0		intRandomYaw|0|1|$|
5285896	5285763	object/cell/cell.iff	2	0	0	0	1	0	0	0		$|
5285920	5285896	object/tangible/poi/spawnegg/interior_spawnegg.iff	2	24.19349289	-38.23645782	-32.48784637	1	0	0	0		intRandomYaw|0|1|$|
5285921	5285896	object/tangible/poi/spawnegg/interior_spawnegg.iff	2	23.01330566	-42.21466827	-67.68199921	1	0	0	0		intRandomYaw|0|1|$|
5285922	5285896	object/tangible/poi/spawnegg/interior_spawnegg.iff	2	27.53055	-43.30690384	-67.14755249	1	0	0	0		intRandomYaw|0|1|$|
5285923	5285896	object/tangible/poi/spawnegg/interior_spawnegg.iff	2	45.38860703	-47.23974609	-27.18453979	1	0	0	0		intRandomYaw|0|1|$|
5285939	5285896	object/tangible/poi/spawnegg/interior_spawnegg.iff	2	51.91511154	-67.74233246	-47.81422043	1	0	0	0		intRandomYaw|0|1|$|
5285940	5285896	object/tangible/poi/spawnegg/interior_spawnegg.iff	2	51.17273712	-67.4890213	-44.91736984	1	0	0	0		intRandomYaw|0|1|$|
6336292	5285896	object/tangible/container/loot/placable_loot_crate.iff	2	20.6609	-38.6178	-34.493	0.703414	-0.0248573	0.709918	-0.0246296		$|
6336293	5285896	object/tangible/container/loot/placable_loot_crate.iff	2	52.91	-47.7726	-68.8661	0.996541	0.0698721	-0.00179891	0.0449488		$|
5285897	5285763	object/cell/cell.iff	3	0	0	0	1	0	0	0		$|
5285924	5285897	object/tangible/poi/spawnegg/interior_spawnegg.iff	3	83.48194122	-62.14448166	-12.99097443	1	0	0	0		intRandomYaw|0|1|$|
5285925	5285897	object/tangible/poi/spawnegg/interior_spawnegg.iff	3	80.0613327	-62.71062088	-16.37899399	1	0	0	0		intRandomYaw|0|1|$|
6336295	5285897	object/tangible/container/loot/placable_loot_crate.iff	3	92.4457	-61.7166	-8.92617	0.996193	0.0198552	-0.0400326	0.074851		$|
5285898	5285763	object/cell/cell.iff	4	0	0	0	1	0	0	0		$|
5285926	5285898	object/tangible/poi/spawnegg/interior_spawnegg.iff	4	80.74395752	-75.74803162	-59.39850235	1	0	0	0		intRandomYaw|0|1|$|
5285927	5285898	object/tangible/poi/spawnegg/interior_spawnegg.iff	4	74.65522003	-77.06774139	-88.58092499	1	0	0	0		intRandomYaw|0|1|$|
5285928	5285898	object/tangible/poi/spawnegg/interior_spawnegg.iff	4	72.2150116	-77.38072968	-90.51839447	1	0	0	0		intRandomYaw|0|1|$|
5285899	5285763	object/cell/cell.iff	5	0	0	0	1	0	0	0		$|
5285943	5285899	object/tangible/poi/spawnegg/interior_spawnegg.iff	5	87.55325317	-46.76265717	-108.9346085	1	0	0	0		intRandomYaw|0|1|$|
5285900	5285763	object/cell/cell.iff	6	0	0	0	1	0	0	0		$|
5285929	5285900	object/tangible/poi/spawnegg/interior_spawnegg.iff	6	54.45043182	-72.75112152	-110.1914673	1	0	0	0		intRandomYaw|0|1|$|
5285901	5285763	object/cell/cell.iff	7	0	0	0	1	0	0	0		$|
5285930	5285901	object/tangible/poi/spawnegg/interior_spawnegg.iff	7	85.43058777	-66.57073212	-138.5465393	1	0	0	0		intRandomYaw|0|1|$|
5285931	5285901	object/tangible/poi/spawnegg/interior_spawnegg.iff	7	82.63412476	-66.10686493	-136.7633972	1	0	0	0		intRandomYaw|0|1|$|
5285902	5285763	object/cell/cell.iff	8	0	0	0	1	0	0	0		$|
5285932	5285902	object/tangible/poi/spawnegg/interior_spawnegg.iff	8	105.8970032	-66.17961884	-107.868042	1	0	0	0		intRandomYaw|0|1|$|
5285933	5285902	object/tangible/poi/spawnegg/interior_spawnegg.iff	8	135.5626221	-66.12140656	-119.1282578	1	0	0	0		intRandomYaw|0|1|$|
5285934	5285902	object/tangible/poi/spawnegg/interior_spawnegg.iff	8	124.4222565	-66.78386688	-86.92588806	1	0	0	0		intRandomYaw|0|1|$|
5285935	5285902	object/tangible/poi/spawnegg/interior_spawnegg.iff	8	155.8711395	-66.43106079	-97.37794495	1	0	0	0		intRandomYaw|0|1|$|
5285903	5285763	object/cell/cell.iff	9	0	0	0	1	0	0	0		$|
5285936	5285903	object/tangible/poi/spawnegg/interior_spawnegg.iff	9	190.2190094	-66.56084442	-101.4050522	1	0	0	0		intRandomYaw|0|1|$|
5285937	5285903	object/tangible/poi/spawnegg/interior_spawnegg.iff	9	188.455368	-65.8073349	-106.3896179	1	0	0	0		intRandomYaw|0|1|$|
5285938	5285903	object/tangible/poi/spawnegg/interior_spawnegg.iff	9	188.4327087	-65.81268311	-96.03523254	1	0	0	0		intRandomYaw|0|1|$|
6336297	5285903	object/tangible/container/loot/placable_loot_crate.iff	9	192.944	-66.9372	-104.692	-0.682008	-0.0170538	0.730917	-0.0182767		$|
6336298	5285903	object/tangible/container/loot/placable_loot_crate.iff	9	192.344	-66.6052	-98.1468	0.998139	-0.0349491	0.00174891	-0.0499486		$|
5285904	5285763	object/cell/cell.iff	10	0	0	0	1	0	0	0		$|
5285941	5285904	object/tangible/poi/spawnegg/interior_spawnegg.iff	10	51.52198029	-51.32757187	-83.25032806	1	0	0	0		intRandomYaw|0|1|$|
5285942	5285904	object/tangible/poi/spawnegg/interior_spawnegg.iff	10	59.55907822	-48.01171875	-106.8303757	1	0	0	0		intRandomYaw|0|1|$|
5285905	5285763	object/cell/cell.iff	11	0	0	0	1	0	0	0		$|
5285944	5285905	object/tangible/poi/spawnegg/interior_spawnegg.iff	11	78.08746338	-46.57048798	-143.6131134	1	0	0	0		intRandomYaw|0|1|$|
5285945	5285905	object/tangible/poi/spawnegg/interior_spawnegg.iff	11	82.95011139	-46.30831528	-141.905365	1	0	0	0		intRandomYaw|0|1|$|
5285946	5285905	object/tangible/poi/spawnegg/interior_spawnegg.iff	11	77.87824249	-46.45675659	-138.4697113	1	0	0	0		intRandomYaw|0|1|$|
5285910	0	object/static/structure/general/skeleton_human_head.iff	0	1741.11	36	1477.4	0.832645	-0.0230311	0.539592	0.122529		$|
5285911	0	object/static/structure/general/skeleton_human_headandbody.iff	0	1734.77	36.0013	1477.48	0.982936	0	0.183946	0		$|
5285912	0	object/static/particle/pt_miasma_of_fog_gray.iff	0	1763.46	45.5403	1503.78	0.996802	0	-0.0799148	0		$|
5285913	0	object/static/particle/pt_miasma_of_fog_gray.iff	0	1760.98	40.3564	1504.1	0.996802	0	-0.0799148	0		$|
5285914	0	object/static/particle/pt_miasma_of_fog_gray.iff	0	1763.8	39.4898	1501.56	0.996802	0	-0.0799148	0		$|
5425859	0	object/static/structure/general/prp_junk_s8.iff	0	710.673	5.23568	1482.34	1	0	0	0		$|
5425860	0	object/static/structure/general/prp_engine.iff	0	710.807	4.17	1481.03	1	0	0	0		$|
5555380	0	object/static/structure/general/streetlamp_small_blue_style_01.iff	0	952.679	10.135	1246.15	0.00405742	0.699989	0.00413939	0.71413		$|
5555383	0	object/static/structure/general/streetlamp_small_blue_style_01.iff	0	881.572	10.1378	1229.46	-0.00420361	0	0	0.999991		$|
5555385	0	object/static/structure/general/streetlamp_small_blue_style_01.iff	0	888.683	10.1378	1173.06	-0.000563051	0.707106	-0.000563088	0.707107		$|
5555388	0	object/static/structure/general/streetlamp_small_blue_style_01.iff	0	782.055	8.08235	1250.33	-0.000563	0.707106	-0.000563	0.707107		$|
5555389	0	object/static/structure/general/streetlamp_small_blue_style_01.iff	0	605.941	8.05499	1262.58	-0.000304693	0.382683	-0.000735595	0.923879		$|
5555391	0	object/static/structure/general/streetlamp_small_blue_style_01.iff	0	606.333	8.07566	1238.2	-0.000735595	0.923879	-0.000304693	0.382684		$|
5555392	0	object/static/structure/general/streetlamp_small_blue_style_02.iff	0	589.706	4.73031	1248.89	1	0	0	0		$|
5555393	0	object/static/structure/general/streetlamp_small_blue_style_02.iff	0	589.583	4.73031	1251.54	1	0	0	0		$|
5555395	0	object/static/structure/general/streetlamp_small_style_02.iff	0	593.488	3.73103	1332.78	1	0	0	0		$|
5555396	0	object/static/structure/general/streetlamp_small_style_02.iff	0	603.702	3.75	1327.84	1	0	0	0		$|
5555412	0	object/static/structure/general/streetlamp_small_blue_style_02.iff	0	570.335	3.75	1363.04	1	0	0	0		$|
5555413	0	object/static/structure/general/streetlamp_small_blue_style_02.iff	0	562.435	3.75	1391	1	0	0	0		$|
5555417	0	object/static/structure/general/streetlamp_medium_blue_style_01.iff	0	569.474	4.17	1535.03	0.878683	0	-0.477405	0		$|
5555420	0	object/static/structure/general/streetlamp_small_style_02.iff	0	698.306	4.17	1442.54	1	0	0	0		$|
5555421	0	object/static/structure/general/streetlamp_small_style_02.iff	0	704.586	4.17	1451.76	1	0	0	0		$|
5555422	0	object/static/structure/general/streetlamp_small_style_02.iff	0	740.428	5.33157	1410.04	1	0	0	0		$|
5555423	0	object/static/structure/general/streetlamp_small_style_02.iff	0	745.975	5.27406	1412.03	1	0	0	0		$|
5555424	0	object/static/structure/general/streetlamp_small_style_02.iff	0	762.28	3.75	1354.44	1	0	0	0		$|
5555425	0	object/static/structure/general/streetlamp_small_style_02.iff	0	767.001	3.75	1356.33	1	0	0	0		$|
5555426	0	object/static/structure/general/streetlamp_small_style_01.iff	0	748.123	13.331	1361.19	0.00579635	0	0	0.999983		$|
5555427	0	object/static/structure/general/streetlamp_small_style_02.iff	0	632.567	3.75	1275.63	1	0	0	0		$|
5555431	0	object/static/structure/general/streetlamp_small_style_02.iff	0	613.915	3.75	1276.95	1	0	0	0		$|
5555432	0	object/static/structure/general/streetlamp_small_style_02.iff	0	653.135	3.75	1247.75	1	0	0	0		$|
5555433	0	object/static/structure/general/streetlamp_small_style_02.iff	0	640.802	3.7446	1233.75	1	0	0	0		$|
5555435	0	object/static/structure/general/streetlamp_small_style_02.iff	0	711.585	3.74773	1210.36	1	0	0	0		$|
5555437	0	object/static/structure/general/streetlamp_small_style_02.iff	0	701.057	3.74997	1194.91	1	0	0	0		$|
5555441	0	object/static/structure/general/streetlamp_small_blue_style_01.iff	0	640.451	6.12171	1189.38	1	0	0	0		$|
5555442	0	object/static/structure/general/streetlamp_small_blue_style_01.iff	0	611.431	6.12171	1189.71	1	0	0	0		$|
5555443	0	object/static/structure/general/streetlamp_small_blue_style_02.iff	0	669.387	15.1624	1342.33	0.000796407	0	0	1		$|
5555469	0	object/static/structure/general/streetlamp_small_blue_style_01.iff	0	731.502	10.2327	1140.26	0.0144072	-0.692674	-0.0149953	0.720951		$|
5555472	0	object/static/structure/general/streetlamp_small_style_02.iff	0	743.192	3.75	1222.95	1	0	0	0		$|
5555473	0	object/static/structure/general/streetlamp_small_style_02.iff	0	733.076	3.75	1228.08	1	0	0	0		$|
5555477	0	object/static/structure/general/streetlamp_medium_blue_style_01.iff	0	814.991	3.75	1188.77	0.92388	0	0.382683	0		$|
5555478	0	object/static/structure/general/streetlamp_medium_blue_style_01.iff	0	829.501	3.75	1188.76	0.92388	0	-0.382683	0		$|
5555479	0	object/static/structure/general/streetlamp_medium_blue_style_01.iff	0	827.227	3.75	1241.35	0.92388	0	0.382683	0		$|
5555480	0	object/static/structure/general/streetlamp_medium_blue_style_01.iff	0	814.752	3.75	1241.38	0.92388	0	-0.382683	0		$|
5555481	0	object/static/structure/general/streetlamp_small_blue_style_01.iff	0	876.881	10.1693	1279.54	-0.0315939	-0.38246	0.0130866	0.923339		$|
5555494	0	object/static/structure/general/streetlamp_small_green_style_01.iff	0	663.074	1.40572	1216.81	1	0	0	0		$|
5555496	0	object/static/structure/general/streetlamp_small_green_style_01.iff	0	673.263	8.59789	1215.99	1	0	0	0		$|
6336606	0	object/tangible/terminal/terminal_mission_scout.iff	0	696.696	3.75	1176.64	1	0	0	0		$|
6336608	0	object/tangible/terminal/terminal_mission_artisan.iff	0	694.73	3.75	1176.68	1	0	0	0		$|
6336610	0	object/tangible/terminal/terminal_mission_entertainer.iff	0	692.994	3.75	1176.89	1	0	0	0		$|
6336612	0	object/tangible/terminal/terminal_mission_scout.iff	0	721.631	3.75	1176.81	1	0	0	0		$|
6336614	0	object/tangible/terminal/terminal_mission_artisan.iff	0	723.356	3.75	1176.69	1	0	0	0		$|
6336616	0	object/tangible/terminal/terminal_mission_entertainer.iff	0	725.395	3.75	1177.06	1	0	0	0		$|
6336619	0	object/tangible/terminal/terminal_mission_scout.iff	0	636.749	6.26	1183.67	0.707107	0	-0.707106	0		$|
6336621	0	object/tangible/terminal/terminal_mission_scout.iff	0	615.068	6.26	1183.68	0.707107	0	0.707106	0		$|
6336625	0	object/tangible/terminal/terminal_mission_scout.iff	0	598.233	3.75	1232.31	0.707107	0	-0.707106	0		$|
6336628	0	object/tangible/terminal/terminal_mission_scout.iff	0	597.839	3.75	1268.25	0.707107	0	-0.707106	0		$|
6336636	0	object/tangible/terminal/terminal_mission_artisan.iff	0	582.563	3.75	1268.24	0.707107	0	0.707106	0		$|
6336638	0	object/tangible/terminal/terminal_mission_entertainer.iff	0	581.138	3.75	1266.73	-0.000000032	0	1	0		$|
6336640	0	object/tangible/terminal/terminal_mission_artisan.iff	0	583.041	3.75	1232.12	0.707107	0	0.707107	0		$|
6336643	0	object/tangible/terminal/terminal_mission_entertainer.iff	0	581.689	3.75	1233.34	1	0	0	0		$|
6336647	0	object/tangible/terminal/terminal_mission_scout.iff	0	696.054	4.17	1439.24	0.464172	0	0.885745	0		$|
6336653	0	object/tangible/terminal/terminal_mission_artisan.iff	0	706.247	4.17	1454.35	0.464172	0	0.885745	0		$|
6336659	0	object/tangible/terminal/terminal_mission_artisan.iff	0	811.62	3.75	1319.1	-0.359469	0	0.933157	0		$|
6336663	0	object/tangible/terminal/terminal_mission_artisan.iff	0	788.418	3.75	1339.89	-0.359469	0	0.933157	0		$|
6336676	0	object/static/structure/general/camp_stool_short_s01.iff	0	666.349	3.74362	1243.16	1	0	0	0		$|
6336677	0	object/static/structure/general/camp_tent_s01.iff	0	664.439	3.74472	1244.6	0.74183	0	0.670588	0		$|
6695411	0	object/soundobject/soundobject_city_crowd_sentients_large.iff	0	644.274	3.75	1209.28	1	0	0	0		$|
6695413	0	object/soundobject/soundobject_city_crowd_small.iff	0	809.171	3.75	1180.23	1	0	0	0		$|
6695417	0	object/soundobject/soundobject_city_crowd_small.iff	0	703.998	4.17	1449.19	1	0	0	0		$|
6695420	0	object/soundobject/soundobject_city_crowd_small.iff	0	573.146	4.17	1551.02	1	0	0	0		$|
6695421	0	object/soundobject/soundobject_city_crowd_small.iff	0	648	3.75	1262.9	1	0	0	0		$|
6695426	0	object/soundobject/soundobject_city_crowd_small.iff	0	864.396	3.75	1277.37	1	0	0	0		$|
6695483	0	object/soundobject/soundobject_city_crowd_small.iff	0	566.945	4.22563	1444.45	1	0	0	0		$|
6695488	0	object/soundobject/soundobject_city_crowd_small.iff	0	908.416	3.75	1212.45	1	0	0	0		$|
6695496	0	object/soundobject/soundobject_city_crowd_small.iff	0	718.442	3.75	1315.93	1	0	0	0		$|
6695505	0	object/soundobject/soundobject_city_crowd_small.iff	0	799.12	3.75	1329.3	1	0	0	0		$|
8455398	0	object/static/structure/naboo/nboo_imprv_lattice_wall_short_s01.iff	0	888.581	3.75	1169.47	0.70711	0	-0.707103	0		$|
8575780	0	object/building/naboo/salon_naboo.iff	0	691.388	4.55002	1412.6	0.982936	0	-0.183947	0		$|
8905459	0	object/static/structure/naboo/nboo_imprv_bannerpole_s01.iff	0	631.29	4.17	1458.5	1	0	0	0		$|
8905460	0	object/static/structure/naboo/nboo_imprv_bannerpole_s01.iff	0	605.763	4.17	1469.21	-0.385543	0	0.92269	0		$|
8905461	0	object/static/structure/naboo/nboo_imprv_flagpole_s01.iff	0	873.766	12.3578	1235.67	1	0	0	0		$|
8905464	0	object/static/structure/naboo/nboo_imprv_flagpole_s01.iff	0	577.303	12.4917	1225.13	1	0	0	0		$|
8905465	0	object/static/structure/naboo/nboo_imprv_flagpole_s01.iff	0	576.825	12.4917	1275	1	0	0	0		$|
9525706	0	object/static/structure/naboo/gungan_statue_s01.iff	0	926.273	6.10813	254.834	0.908966	0	0.416871	0		$|
9525707	0	object/static/structure/naboo/gungan_shield_s01.iff	0	925.823	3.66211	254.515	0.958244	0	-0.285952	0		$|
9525915	0	object/tangible/crafting/station/public_food_station.iff	0	708.588	4.17	1416.68	0.982004	0	-0.188859	0		$|
9525916	0	object/static/structure/general/droid_21bmedical_powerdown.iff	0	706.701	4.17811	1414.45	0.970998	-0.117082	-0.206961	-0.0249552		$|
9525918	0	object/static/structure/tatooine/skeleton_greater_krayt_head.iff	0	739.784	4.17	1437.99	0.789741	-0.211749	0.468338	-0.33486		$|
9525919	0	object/static/structure/general/all_banner_generic_s02.iff	0	739.203	4.18991	1439.56	0.844588	0	-0.535417	0		$|
9525923	0	object/tangible/crafting/station/public_food_station.iff	0	730.1	4.17	1434.02	-0.535414	0	0.844589	0		$|
9525924	0	object/tangible/crafting/station/public_weapon_station.iff	0	733.907	4.17	1449.36	0.913089	0	-0.407761	0		$|
9525925	0	object/tangible/crafting/station/public_clothing_station.iff	0	729.555	4.17	1443.28	0.973119	0	0.230303	0		$|
9525938	0	object/static/structure/dantooine/dant_rack_spears.iff	0	702.084	4.17	1409.66	0.0932717	0	0.995641	0		$|
9525939	0	object/static/structure/dantooine/dant_rack_spears.iff	0	700.826	4.17	1409.78	-0.276355	0	0.961056	0		$|
9525950	0	object/tangible/speaker/speaker.iff	0	751.56	4.17	1493.97	-0.527619	0	0.849481	0		$|
9525951	0	object/tangible/instrument/nalargon.iff	0	748.146	4.17	1500.8	0.819648	0	-0.572868	0		$|
9525952	0	object/tangible/instrument/ommni_box.iff	0	749.076	4.17	1496.78	0.0741363	0	0.997248	0		$|
9525954	0	object/tangible/speaker/speaker.iff	0	749.605	4.17	1504.61	0.852524	0	-0.522688	0		$|
9525958	0	object/static/structure/general/streetlamp_small_style_01.iff	0	745.801	4.17	1497.86	0.76703	0	0.641611	0		$|
9745382	0	object/static/structure/general/data_terminal_free_s1.iff	0	714.052	4.17	1478.4	0.998104	0	0.061555	0		$|
9745384	0	object/static/structure/naboo/poi_nboo_tent_small.iff	0	713.725	4.17	1480.93	-0.204348	0	0.978898	0		$|
9745387	0	object/static/structure/general/droid_droideka_powerdown.iff	0	711.166	4.17	1478.45	0.552863	0	0.833272	0		$|
9795352	0	object/static/structure/general/droid_lemedical_powerdown.iff	0	712.77	4.17	1483.58	0.174892	0	0.984588	0		$|
9795354	0	object/static/structure/naboo/poi_nboo_tent_small.iff	0	727.104	4.17	1438.91	-0.0157971	0	0.999875	0		$|
1717667	0	object/building/naboo/thm_nboo_block_bldg_32x16_style_01.iff	0	675.357	2.65213	1161.15	1	0	0	0		$|
1717675	0	object/building/naboo/filler_building_naboo_theed_style_6.iff	0	651.612	3.75	1176.68	0.707108	0	0.707106	0		$|
1717679	0	object/building/naboo/thm_nboo_block_bldg_64x32_style_01.iff	0	850.4	3.75	1304.69	-0.40776	0	0.913089	0		$|
1717704	0	object/building/naboo/thm_nboo_block_bldg_32x16_style_02.iff	0	590.558	3.75	1201.85	0.921061	0	0.389418	0		$|
1717710	0	object/building/naboo/thm_nboo_block_bldg_64x32_s02.iff	0	795.412	3.75	1163.95	-0.000000032	0	1	0		$|
1717713	0	object/building/naboo/filler_building_naboo_theed_style_10.iff	0	853.244	3.75	1169.25	1	0	0	0		$|
1717717	0	object/building/naboo/thm_nboo_block_bldg_32x16_style_01.iff	0	884.459	3.75	1193.5	-0.707106	0	0.707107	0		$|
1717720	0	object/building/naboo/filler_building_naboo_theed_style_9.iff	0	669.187	4.92018	1343.75	0.0741355	0	0.997248	0		$|
1717721	0	object/building/naboo/thm_nboo_block_bldg_32x16_style_02.iff	0	782.77	3.75	1276.53	-0.700283	0	0.713865	0		$|
1719367	0	object/building/naboo/thm_nboo_block_bldg_32x16_style_01.iff	0	659.921	3.75	1310.58	0.449134	0	0.893464	0		$|
1719419	0	object/building/naboo/filler_building_naboo_theed_style_10.iff	0	632.635	3.78006	1322.78	-0.329521	0	0.944148	0		$|
1719422	0	object/building/naboo/thm_nboo_block_bldg_32x16_style_01.iff	0	787.225	3.38493	1368.83	-0.27559	0	0.961275	0		$|
1722385	0	object/building/naboo/filler_building_naboo_theed_style_10.iff	0	724.964	3.75	1332.96	-0.329521	0	0.944148	0		$|
4245364	0	object/building/naboo/thm_nboo_block_bldg_32x16_style_02.iff	0	656.58	4.17	1576.92	-0.000795918	0	1	0		$|
5425857	0	object/static/structure/general/droid_r3_torso.iff	0	710.76	4.17	1480.04	0.928665	0	0.370921	0		$|
9795353	0	object/static/structure/general/droid_r4_head.iff	0	712.155	3.44267	1483.06	0.768054	0	0.640385	0		$|
5285915	0	object/tangible/poi/spawnegg/exterior_spawnegg.iff	0	1764.231445	8.05689621	1407.972656	1	0	0	0		$|
5285916	0	object/tangible/poi/spawnegg/exterior_spawnegg.iff	0	1739.907227	35.99320602	1469.686523	1	0	0	0		$|
5036498	0	object/tangible/space/content_infrastructure/ground_npc_spawner.iff	0	709	4	1458	0.46175	0	0.88701	0		$|
5036499	0	object/tangible/space/content_infrastructure/ground_npc_spawner.iff	0	694	4	1435	0.46175	0	0.88701	0		$|
3737701	0	object/tangible/ground_spawning/mob_spawner.iff	0	627	3	1209	1	0	0	0		$|
6995490	0	object/tangible/ground_spawning/mob_spawner.iff	0	730	4	1448	1	0	0	0		$|
2075658	0	object/tangible/ground_spawning/mob_spawner.iff	0	557	3	1732	1	0	0	0		$|
